{
    "codigoRetorno": 200,
    "descricaoRetorno": "Got it!",
    "objectsReturn": {
        "questionario": {
            "numeroPerguntasObrigatorias": 5,
            "listaObrigatorio": [],
            "listaOpcional": [
                {
                    "pergCod": 29,
                    "pergunta": "QUAL E O DIA DE VENCIMENTO DE SUA FATURA?",
                    "resposta": "2",
                    "obrigatoria": false,
                    "pergIdfDescCampo": "CCM_CREDITO/DIA_VCTO",
                    "pergDescSelect": "SELECT A.DIA_VCTO FROM CCM_CREDITO A"
                },
                {
                    "pergCod": 23,
                    "pergunta": "QUAL A SUA ATIVIDADE PROFISSIONAL?",
                    "resposta": "ADVOGADOS",
                    "obrigatoria": false,
                    "pergIdfDescCampo": "CCM_OCUPACAO/OCUP_DESCR",
                    "pergDescSelect": "SELECT B.OCUP_DESCR FROM CCM_CLIENTE A, CCM_OCUPACAO B WHERE A.CLI_EMP_CARGO = B.CARG_COD AND A.CLI_EMP_OCUPACAO = B.OCUP_COD"
                },
                {
                    "pergCod": 25,
                    "pergunta": "QUAL E O ENDERECO DO SEU LOCAL DE TRABALHO?",
                    "resposta": "R APARECIDA",
                    "obrigatoria": false,
                    "pergIdfDescCampo": "CCM_CLIENTE/CLI_EMP_RUA",
                    "pergDescSelect": "SELECT A.CLI_EMP_RUA FROM CCM_CLIENTE A"
                },
                {
                    "pergCod": 31,
                    "pergunta": "QUAL E O NUMERO DO SEU CARTAO?",
                    "resposta": "6034752364883315",
                    "obrigatoria": false,
                    "pergIdfDescCampo": "CCM_CREDITO/PLAS_NUM_CARTAO",
                    "pergDescSelect": "SELECT CONCAT(A.CAR_BIN, A.PLAS_NUM_CARTAO) FROM CCM_CREDITO A"
                },
                {
                    "pergCod": 28,
                    "pergunta": "QUAL E A SUA DATA DE ADMISSAO NO TRABALHO?",
                    "resposta": "23/10/2007",
                    "obrigatoria": false,
                    "pergIdfDescCampo": "CCM_CLIENTE/CLI_EMP_DT_ADM",
                    "pergDescSelect": "SELECT A.CLI_EMP_DT_ADM FROM CCM_CLIENTE A, CCM_OCUPACAO B WHERE A.CLI_EMP_CARGO = B.CARG_COD AND A.CLI_EMP_OCUPACAO = B.OCUP_COD AND B.OCUP_ADM_SN = 'S'"
                },
                {
                    "pergCod": 26,
                    "pergunta": "QUAL E O SEU TELEFONE COMERCIAL?",
                    "resposta": "21014936",
                    "obrigatoria": false,
                    "pergIdfDescCampo": "CCM_CLIENTE/CLI_EMP_FONE",
                    "pergDescSelect": "SELECT A.CLI_EMP_FONE FROM CCM_CLIENTE A"
                },
                {
                    "pergCod": 30,
                    "pergunta": "EM QUE LOJA FOI FEITO SEU CADASTRO PARA O CARTAO?",
                    "resposta": "L 900 SP / SP",
                    "obrigatoria": false,
                    "pergIdfDescCampo": "CCM_FILIAL/FIL_NOME_FANTA",
                    "pergDescSelect": "SELECT B.FIL_NOME_FANTA FROM CCM_CLIENTE A, CCM_FILIAL B WHERE A.EMP_COD = B.EMP_COD AND A.FIL_COD = B.FIL_COD"
                },
                {
                    "pergCod": 24,
                    "pergunta": "QUAL O NOME DA EMPRESA ONDE TRABALHA?",
                    "resposta": "SOTA",
                    "obrigatoria": false,
                    "pergIdfDescCampo": "CCM_CLIENTE/CLI_EMP_EMPRESA",
                    "pergDescSelect": "SELECT A.CLI_EMP_EMPRESA FROM CCM_CLIENTE A"
                },
                {
                    "pergCod": 27,
                    "pergunta": "QUAIS SAO OS QUATRO ULTIMOS DIGITOS DE SEU TELEFONE COMERICAL?",
                    "resposta": "21014936",
                    "obrigatoria": false,
                    "pergIdfDescCampo": "CCM_CLIENTE/CLI_EMP_FONE",
                    "pergDescSelect": "SELECT A.CLI_EMP_FONE FROM CCM_CLIENTE A"
                },
                {
                    "pergCod": 13,
                    "pergunta": "HA QUANTO TEMPO RESIDE EM SEU ENDERECO?",
                    "resposta": "5",
                    "obrigatoria": false,
                    "pergIdfDescCampo": "CCM_CLIENTE/CLI_RES_DT_DESDE_",
                    "pergDescSelect": "SELECT ROUND(MONTHS_BETWEEN(SYSDATE,A.CLI_RES_DT_DESDE)/12) FROM CCM_CLIENTE A"
                }
            ]
        }
    }
}